867038 938331 476
538482 903751 525
125809 497463 449
643449 780329 504
494965 642167 509
383635 870377 525
986383 995012 396
383070 516342 470
6305 180841 383
661659 818988 504
552750 666814 509
80996 400048 443
470628 925658 525
816357 856104 525
910165 956178 507
979638 980314 277
296707 748273 509
847790 945862 507
78946 663317 509
167110 839255 525
973012 975064 383
533568 902680 525
426308 822576 509
99997 939985 525
477855 624536 470
446816 951732 525
212862 828138 509
67305 623090 470
966593 970436 352
754207 873327 525
141011 780825 509
45727 573603 470
309695 854101 525
849776 862299 419
810591 961819 525
974575 999016 440
178962 774326 509
170407 716399 509
139431 389218 443
352224 678632 509
890313 969015 507
674143 786731 504
626108 805739 509
717059 868401 525
59177 320317 443
974050 991042 427
551378 925008 525
350247 370243 410
882347 964652 507
413765 885044 525
75825 114339 354
772326 959993 525
855679 995693 507
481390 559637 470
199482 381828 443
185669 391829 443
752621 851555 525
262813 341843 407
723111 904376 525
812239 907261 525
582127 771311 509
165230 523076 470
676227 727273 504
407338 582192 470
269489 734960 509
23145 831182 509
880111 915726 476
406664 450898 449
485418 814661 509
123745 884673 525
141024 232621 443
279089 339299 389
13614 944193 525
846547 956508 507
767506 880876 525
310040 520551 470
635345 970631 525
759062 911040 525
992208 993195 352
712017 829139 468
365779 489073 449
709018 982095 525
428967 740437 509
199110 840550 525
780186 790786 406
669090 914818 525
335508 684400 509
474954 493375 426
594899 878165 525
807369 883078 525
758658 972416 525
258334 413307 449
133002 676325 509
224353 882361 525
804300 904610 525
147650 283697 443
208786 270579 443
813789 888957 525
710701 738799 424
313202 330182 384
206557 527728 470
795717 973784 525
247225 856546 525
961616 980219 458
989866 997993 440
203476 420643 449
675923 968407 525
180158 196318 365
498674 673137 509
209323 563780 470
26048 606734 470
246872 867843 525
324190 681352 509
182139 870275 525
141480 771008 509
135727 564811 470
776719 875743 525
71404 967593 525
767161 767685 318
909059 921298 476
228010 489549 449
850024 940460 507
522186 940376 525
951194 999045 458
232534 744704 509
293954 624565 470
709436 865277 525
898352 983584 507
140121 932133 525
877493 890274 445
819248 935427 525
153799 659904 509
49033 579714 470
874726 977567 507
932556 977514 507
451245 771900 509
515235 930394 525
529244 599179 452
543369 786602 509
619982 662317 509
41410 618988 470
729538 941320 525
365416 540245 470
413777 629820 509
564348 755408 509
218566 882075 525
85955 909715 525
351063 665453 509
293944 998968 525
469971 485909 413
495372 584608 470
98829 660614 509
495038 996693 525
400129 605208 470
500188 608667 470
452162 554734 470
138304 651586 509
532783 685490 509
905511 937826 476
462668 988794 525
872199 882648 432
723918 812447 468
133543 401785 443
936433 948359 507
804424 984760 525
334000 951085 525
607866 921056 525
357775 883918 525
40332 311142 443
54740 191001 383
119800 531438 470
813915 887266 525
448971 964393 525
872144 976716 507
66143 483167 449
261106 650642 509
431218 553064 470
34120 720887 509
433966 597055 470
778910 853841 525
46617 647722 509
311295 666265 509
183642 347237 443
668919 871196 525
17844 951071 525
472622 727295 509
499392 689042 509
411009 543939 470
311558 659750 509
2899 401577 443
308826 489437 449
964711 974424 458
672290 946781 525
657972 814232 504
203422 306809 443
337716 600312 470
423017 593473 470
24723 522290 470
194052 370485 443
734779 942104 525
